simulation/qsim/ECE352_Base.msim.vcd
$comment
	File created using the following command:
		vcd file ECE352_Base.msim.vcd -direction
$end
$date
	Thu Sep 22 00:22:19 2016
$end
$version
	ModelSim Version 10.4d
$end
$timescale
	1ps
$end

$scope module fa4_vlg_vec_tst $end
$var reg 4 ! A [3:0] $end
$var reg 4 " B [3:0] $end
$var reg 1 # Cin $end
$var wire 1 $ Cout $end
$var wire 1 % S [3] $end
$var wire 1 & S [2] $end
$var wire 1 ' S [1] $end
$var wire 1 ( S [0] $end

$scope module i1 $end
$var wire 1 ) gnd $end
$var wire 1 * vcc $end
$var wire 1 + unknown $end
$var tri1 1 , devclrn $end
$var tri1 1 - devpor $end
$var tri1 1 . devoe $end
$var wire 1 / Cout~output_o $end
$var wire 1 0 S[3]~output_o $end
$var wire 1 1 S[2]~output_o $end
$var wire 1 2 S[1]~output_o $end
$var wire 1 3 S[0]~output_o $end
$var wire 1 4 A[3]~input_o $end
$var wire 1 5 B[2]~input_o $end
$var wire 1 6 A[2]~input_o $end
$var wire 1 7 inst2|inst4~0_combout $end
$var wire 1 8 B[3]~input_o $end
$var wire 1 9 B[1]~input_o $end
$var wire 1 : A[1]~input_o $end
$var wire 1 ; A[0]~input_o $end
$var wire 1 < Cin~input_o $end
$var wire 1 = B[0]~input_o $end
$var wire 1 > inst|inst4~1_combout $end
$var wire 1 ? inst|inst4~0_combout $end
$var wire 1 @ inst1|inst4~0_combout $end
$var wire 1 A inst2|inst4~1_combout $end
$var wire 1 B inst3|inst4~0_combout $end
$var wire 1 C inst3|inst6~combout $end
$var wire 1 D inst2|inst6~0_combout $end
$var wire 1 E inst1|inst6~combout $end
$var wire 1 F inst|inst6~0_combout $end
$upscope $end
$upscope $end
$enddefinitions $end
#0
$dumpvars
b11 !
b1110 "
0#
x$
x(
x'
x&
x%
0)
1*
x+
1,
1-
1.
x/
x0
x1
x2
x3
04
15
06
x7
18
19
1:
1;
0<
0=
x>
x?
x@
xA
xB
xC
xD
xE
xF
$end
#3215
1@
#3488
07
#3570
0D
#3585
1A
#3617
0?
#3800
0>
#3814
1F
#3938
0C
#3955
1B
#4330
0E
#7081
01
0&
#7259
00
0%
#7275
13
1(
#7693
1/
1$
#7899
02
0'
#10000
b111 !
b110 !
#10644
16
#10845
0;
#13895
17
#14212
1D
#14660
0F
#17870
11
1&
#17998
03
0(
#20000
b100 !
b110 "
b10 "
b0 "
b1 "
1#
#20644
1=
#20674
1<
#20815
0:
09
#20835
05
#20845
08
#24201
1>
#24276
07
#24288
0@
#24365
0D
#24469
0B
#24470
1C
#24669
0A
#24685
1D
#24702
1E
#25000
0#
#25049
0C
#25855
0<
#28046
0/
0$
#28429
12
1'
#29655
0>
#29669
1F
#30000
b1100 !
b1000 !
b1010 !
b0 "
#30185
0E
#30634
1:
#30643
14
#30825
06
0=
#33130
13
1(
#33754
02
0'
#33886
1E
#34143
1C
#34445
0F
#34657
0D
#37590
10
1%
#37613
12
1'
#37783
03
0(
#38168
01
0&
#40000
b1011 !
b1000 "
1#
b1001 !
b1001 "
#40644
1=
#40663
1;
#40664
18
#40674
1<
#40815
0:
#44028
0C
#44039
1B
#44177
1?
#44201
1>
#44238
1F
#44322
0E
#44547
1E
#47349
00
0%
#47699
13
1(
#47777
1/
1$
#50000
b1101 "
b1111 "
#50634
19
#50654
15
#53809
1@
#53846
0E
#53916
1D
#54164
0D
#54179
1A
#54548
1C
#55000
0#
#55855
0<
#57415
02
0'
#57995
10
1%
#59655
0>
#59671
0F
#60000
b1000 !
b1010 !
b1011 "
b1001 "
1#
#60634
1:
#60674
1<
#60815
09
#60835
05
#60845
0;
#63009
03
0(
#64201
1>
#64279
0A
#64357
1D
#64628
0?
#64659
0C
#67980
00
0%
#68015
11
1&
#70000
b1110 !
b1111 !
0#
#70644
16
#70663
1;
#70855
0<
#74133
1A
#74177
1?
#74201
1F
#74214
0D
#74502
1C
#74655
0>
#74671
0F
#77725
01
0&
#77949
10
1%
#80000
b1011 "
b1011 !
1#
#80634
19
#80674
1<
#80825
06
#83838
1E
#84201
1>
#84238
1F
#84576
0A
#84655
1D
#84956
0C
#87565
12
1'
#87699
13
1(
#88277
00
0%
#88313
11
1&
#90000
b11 !
b11 "
b1 !
b1 "
#90815
0:
09
#90825
04
#90845
08
#94307
0@
#94605
0B
#94688
0D
#95000
0#
#95855
0<
#98182
0/
0$
#98199
01
0&
#99655
0>
#99671
0F
#100000
b0 "
b101 !
b1000 "
b111 !
b1010 "
1#
#100634
19
1:
#100644
16
#100664
18
#100674
1<
#100825
0=
#103009
03
0(
#103809
1@
#104034
1C
#104179
1A
#104201
1>
#104442
0?
#104532
0C
#104549
1B
#105000
0#
#105855
0<
#108287
1/
1$
#109655
0>
#109669
1F
#110000
b1000 "
#110185
0E
#110815
09
#113130
13
1(
#113754
02
0'
#114288
0@
#114293
1E
#114669
0A
#114685
1D
#115000
1#
#115050
0B
#115065
1C
#115674
1<
#118020
12
1'
#118343
11
1&
#118512
10
1%
#118627
0/
0$
#119201
1>
#119240
0F
#119695
0E
#119699
1@
#120000
b1100 "
b110 !
b1101 "
b10 !
b1111 "
#120054
0D
#120069
1A
#120422
0C
#120439
1B
#120634
19
#120644
1=
#120654
15
#120825
06
#120845
0;
#122578
03
0(
#123264
02
0'
#123565
01
0&
#123743
00
0%
#123838
1E
#123841
17
#123916
1D
#124020
1?
#124023
1F
#124177
1/
1$
#124313
07
#124628
0?
#124657
0D
#124660
0F
#125000
0#
#125855
0<
#127565
12
1'
#129655
0>
#129669
1F
#130000
b1010 !
b1011 "
b1011 !
b1111 !
1#
#130185
0E
#130643
14
#130644
16
#130663
1;
#130674
1<
#130835
05
#133130
13
1(
#133754
02
0'
#133895
17
#134143
1C
#134177
1?
#134201
1>
#134276
07
#134547
1E
#135000
0#
#135855
0<
#137590
10
1%
#138274
12
1'
#139655
0>
#139671
0F
#140000
b1001 "
b1101 "
1#
#140654
15
#140674
1<
#140815
09
#143009
03
0(
#143841
17
#143916
1D
#144201
1>
#144238
1F
#144301
0E
#147574
11
1&
#147699
13
1(
#147870
02
0'
#150000
b111 !
b11 !
b1111 "
0#
#150634
19
#150825
04
06
#150855
0<
#153838
1E
#154313
07
#154615
0C
#154655
0>
#154657
0D
#154671
0F
#155000
1#
#155674
1<
#157565
12
1'
#157936
00
0%
#158009
03
0(
#158168
01
0&
#159201
1>
#159238
1F
#160000
b1110 "
b10 !
b1010 "
b1010 !
b1000 "
#160643
14
#160815
09
#160825
0=
#160835
05
#160845
0;
#162699
13
1(
#164143
1C
#164279
0A
#164301
0E
#164357
1D
#164442
0?
#164654
0>
#164659
0C
#165181
0@
#165191
1E
#165562
0D
#170000
b0 "
b100 "
b10 !
b110 "
#170634
19
#170654
15
#170825
04
#170845
08
#173809
1@
#173846
0E
#173916
1D
#174164
0D
#174179
1A
#174548
1C
#174605
0B
#175000
0#
#175855
0<
#177415
02
0'
#177995
10
1%
#178182
0/
0$
#179671
0F
#180000
b0 !
b100 !
b111 "
b101 !
1#
#180644
16
1=
#180663
1;
#180674
1<
#180815
0:
#183009
03
0(
#183895
17
#184177
1?
#184201
1>
#184212
1D
#184238
1F
#184307
0@
#184320
1E
#184531
0E
#184545
1@
#187699
13
1(
#187870
11
1&
#190000
b11 "
b1101 !
b1001 !
b1000 !
0#
#190643
14
#190825
06
#190835
05
#190845
0;
#190855
0<
#194117
1B
#194151
0C
#194276
07
#194576
0A
#194628
0?
#194654
0>
#194957
0B
#194972
1C
#195000
1#
#195181
0@
#195191
1E
#195562
0D
#195674
1<
#198918
12
1'
#199073
01
0&
#199201
1>
#199240
0F
#199695
0E
#199699
1@
#200000
b10 "
b0 !
b1 !
#200070
1D
#200663
1;
#200825
0=
04
#202578
03
0(
#203264
02
0'
#203728
11
1&
#204615
0C
#205000
0#
#205855
0<
#207936
00
0%
#209655
0>
#209669
1F
#210000
b1010 "
b11 !
b1110 "
b1111 "
b1011 !
b1010 !
#210182
0@
#210192
1E
#210563
0D
#210634
1:
#210643
14
#210644
1=
#210654
15
#210664
18
#210845
0;
#213130
13
1(
#213849
1@
#213888
0E
#213916
1D
#213919
12
1'
#214017
0F
#214020
1?
#214039
1B
#214074
01
0&
#214204
0D
#214219
1A
#214390
1E
#214588
1C
#214628
0?
#214652
1F
#215008
0E
#217777
1/
1$
#218035
10
1%
#218577
02
0'
#220000
b1000 !
b1011 "
b1010 "
#220815
0:
#220825
0=
#220835
05
#224279
0A
#224307
0@
#224320
1E
#224357
1D
#224445
0F
#224659
0C
#224688
0D
#225000
1#
#225674
1<
#227783
03
0(
#227980
00
0%
#228047
12
1'
#229238
1F
#230000
b1000 "
b0 "
b0 !
b1 !
b100 "
#230654
15
#230663
1;
#230815
09
#230825
04
#230845
08
#232699
13
1(
#233916
1D
#234175
1>
#234209
0F
#234301
0E
#234605
0B
#234676
1E
#237547
03
0(
#237574
11
1&
#238182
0/
0$
#240000
b101 !
b111 !
b101 "
b111 "
b11 "
#240634
1:
19
#240644
16
1=
#240835
05
#243809
1@
#243895
17
#244020
1?
#244023
1F
#244164
0D
#244179
1A
#244276
07
#244586
1C
#247484
13
1(
#247675
01
0&
#248033
10
1%
#250000
b1111 !
b1011 !
b10 "
#250643
14
#250825
06
0=
#254117
1B
#254151
0C
#254442
0?
#254445
0F
#254576
0A
#254655
1D
#254957
0B
#254972
1C
#257783
03
0(
#258313
11
1&
#260000
0#
b1001 !
b0 "
b100 "
b1101 !
#260644
16
#260654
15
#260815
0:
09
#260855
0<
#263844
1A
#263895
17
#264197
0C
#264214
1B
#264307
0@
#264655
0>
#264669
1F
#264688
0A
0D
#265185
0E
#267518
00
0%
#267952
1/
1$
#268130
13
1(
#268199
01
0&
#268754
02
0'
#270000
b1100 !
b100 !
1#
b110 "
#270634
19
#270674
1<
#270825
04
#270845
0;
#273838
1E
#274201
1>
#274605
0B
#274607
1C
#274654
0>
#274695
0E
#274699
1@
#275069
1A
#275070
1D
#275181
0@
#275191
1E
#275562
0A
0D
#278054
10
1%
#278182
0/
0$
#278918
12
1'
#280000
b1110 "
0#
b1100 "
#280664
18
#280815
09
#280855
0<
#284028
0C
#284039
1B
#284301
0E
#284671
0F
#287349
00
0%
#287777
1/
1$
#287870
02
0'
#288009
03
0(
#290000
b0 !
b1 !
b1110 "
#290634
19
#290663
1;
#290825
06
#293838
1E
#294201
1F
#294313
07
#294655
1D
#295000
1#
#295022
0B
#295044
1C
#295674
1<
#297565
12
1'
#297662
13
1(
#298313
11
1&
#298491
10
1%
#298599
0/
0$
#299201
1>
#299240
0F
#299695
0E
#299699
1@
#300000
b1111 "
b11 !
b1011 "
b1011 !
b11 "
b1111 !
b1110 !
0#
#300054
0D
#300069
1A
#300422
0C
#300439
1B
#300634
1:
#300643
14
#300644
1=
16
#300835
05
#300845
08
0;
#300855
0<
#302578
03
0(
#303264
02
0'
#303565
01
0&
#303743
00
0%
#303886
1E
#303895
17
#304020
1?
#304023
1F
#304143
1C
#304177
1/
1$
#304276
07
#304464
0C
#304628
0?
#304654
0>
#305000
1#
#305184
0E
#305674
1<
#307484
13
1(
#309201
1>
#309240
0F
#309702
1E
#310000
b1 "
b0 "
b1100 !
b100 "
b100 !
#310654
15
#310815
09
0:
#310825
0=
04
#312578
03
0(
#313429
12
1'
#313841
17
#313916
1D
#314307
0@
#314441
0>
#314451
1F
#314605
0B
#314607
1C
#314688
0A
0D
#314971
0E
#315000
0#
#315855
0<
#317912
13
1(
#318054
10
1%
#318182
0/
0$
#318540
02
0'
#319671
0F
#320000
b110 "
b111 "
1#
#320634
19
#320644
1=
#320674
1<
#323009
03
0(
#323838
1E
#324201
1>
#324695
0E
#324699
1@
#325069
1A
#325070
1D
#328728
11
1&
#330000
b0 !
b10 !
b11 "
b1 "
#330634
1:
#330815
09
#330825
06
#330835
05
#334276
07
#334576
0A
#334956
0C
#335000
0#
#335855
0<
#338277
00
0%
#339655
0>
#339669
1F
#340000
b11 !
b1011 !
b101 "
1#
#340182
0@
#340192
1E
#340563
0D
#340643
14
#340654
15
#340663
1;
#340674
1<
#343130
13
1(
#343916
1D
#343919
12
1'
#344074
01
0&
#344143
1C
#344177
1?
#344201
1>
#344531
0E
#344545
1@
#344900
0D
#344915
1A
#345268
0C
#345285
1B
#348100
02
0'
#349023
1/
1$
#350000
b1101 "
b1100 "
b1111 !
b1101 !
#350644
16
#350664
18
#350815
0:
#350825
0=
#353895
17
#354034
1C
#354212
1D
#354307
0@
#354320
1E
#354442
0?
#354445
0F
#354688
0A
0D
#355000
0#
#355855
0<
#357481
10
1%
#357783
03
0(
#358047
12
1'
#359655
0>
#359669
1F
#360000
b1110 "
b1010 "
b10 "
b1001 !
b1011 !
1#
#360185
0E
#360634
19
1:
#360674
1<
#360825
06
#360835
05
#360845
08
#363130
13
1(
#363754
02
0'
#363849
1@
#364201
1>
#364240
0F
#364276
07
#364464
0C
#364655
1D
#364702
1E
#364985
0B
#365000
0#
#365007
1C
#365855
0<
#367578
03
0(
#368313
11
1&
#368429
12
1'
#368562
0/
0$
#369655
0>
#369669
1F
#370000
b11 !
b1010 "
b111 !
b101 !
1#
#370185
0E
#370644
16
#370664
18
#370674
1<
#370815
0:
#370825
04
#373130
13
1(
#373754
02
0'
#374028
0C
#374039
1B
#374133
1A
#374201
1>
#374214
0D
#374240
0F
#374307
0@
#374320
1E
#374688
0A
#374695
0E
#374699
1@
#374704
1D
#375000
0#
#375054
0D
#375069
1A
0B
#375084
1C
#375422
0C
#375439
1B
#375855
0<
#377349
00
0%
#377578
03
0(
#377777
1/
1$
#378565
01
0&
#379655
0>
#379669
1F
#380000
b100 !
b1011 "
b1001 "
b1101 "
b101 "
b0 !
#380182
0@
#380192
1E
#380563
0A
#380579
1D
#380644
1=
#380654
15
#380815
09
#380825
06
#380845
0;
08
#380944
0B
#380959
1C
#383130
13
1(
#383841
17
#383919
12
1'
#383924
0D
#384017
0F
#384020
1?
#384237
11
1&
#384313
07
#384406
10
1%
#384521
0/
0$
#384628
0?
#384652
1F
#384655
1D
#385000
1#
#385008
0E
#385046
0C
#385674
1<
#388367
00
0%
#388577
02
0'
#389201
1>
#389240
0F
#389702
1E
#390000
b1000 !
b1001 !
b111 "
b11 "
0#
#390634
19
#390643
14
#390663
1;
#390835
05
#390855
0<
#392578
03
0(
#393429
12
1'
#393809
1@
#393846
0E
#394143
1C
#394177
1?
#394201
1F
#394655
0>
#394671
0F
#395000
1#
#395674
1<
#397415
02
0'
#397590
10
1%
#399201
1>
#399238
1F
#400000
b1011 !
b1011 "
b1111 "
0#
#400634
1:
#400654
15
#400664
18
#400855
0<
#402699
13
1(
#403844
1A
#403886
1E
#403924
0D
#404028
0C
#404039
1B
#404213
1C
#404655
0>
#404671
0F
#405000
1#
#405674
1<
#407435
01
0&
#407613
12
1'
#407777
1/
1$
#408009
03
0(
#409201
1>
#409238
1F
#410000
b1110 "
b11 !
b10 !
b1100 "
b100 "
b0 "
#410815
09
#410825
0=
04
#410835
05
#410845
08
0;
#412699
13
1(
#414279
0A
#414301
0E
#414357
1D
#414442
0?
#414469
0B
#414654
0>
#414659
0C
#415181
0@
#415191
1E
#415562
0D
#417980
00
0%
#418046
0/
0$
#420000
b110 !
0#
b1110 !
b1111 !
b10 "
b110 "
#420634
19
#420643
14
#420644
16
#420654
15
#420663
1;
#420855
0<
#423809
1@
#423846
0E
#423895
17
#424143
1C
#424175
1>
#424179
1A
#424180
1D
#424209
0F
#424542
1B
#424588
0C
#424655
0>
#424669
1F
#424676
1E
#425000
1#
#425185
0E
#425674
1<
#427838
11
1&
#428280
1/
1$
#428754
02
0'
#429201
1>
#429240
0F
#429702
1E
#430000
b1101 !
b1110 "
b101 !
b100 !
b1010 "
0#
#430664
18
#430815
0:
#430825
04
#430835
05
#430845
0;
#430855
0<
#432578
03
0(
#433429
12
1'
#434034
1C
#434276
07
#434322
0E
#434365
0D
#434615
0C
#434654
0>
#435181
0@
#435191
1E
#435562
0A
#435578
1D
#435943
0B
#435958
1C
#439405
10
1%
#439520
0/
0$
#440000
b1011 "
b1001 "
b110 !
b111 !
1#
#440634
1:
#440644
1=
#440663
1;
#440674
1<
#440815
09
#443849
1@
#444177
1?
#444201
1>
#444204
0D
#444219
1A
#444238
1F
#444288
0@
#444531
0E
#444545
1@
#444572
0C
#444589
1B
#444669
0A
#444685
1D
#444900
0D
#444915
1A
#445050
0B
#445065
1C
#445268
0C
#445285
1B
#447699
13
1(
#448100
02
0'
#448411
01
0&
#448589
00
0%
#449023
1/
1$
#450000
b11 !
b1101 "
0#
#450654
15
#450825
06
#450855
0<
#453841
17
#453916
1D
#454313
07
#454655
0>
#454657
0D
#454671
0F
#455000
1#
#455674
1<
#458009
03
0(
#459201
1>
#459238
1F
#460000
b1011 !
b1100 "
b1110 "
b1001 !
b1010 "
#460634
19
#460643
14
#460815
0:
#460825
0=
#460835
05
#462699
13
1(
#463838
1E
#464143
1C
#464279
0A
#464322
0E
#464357
1D
#464442
0?
#464445
0F
#464659
0C
#465000
0#
#465855
0<
#467783
03
0(
#468015
11
1&
#469655
0>
#469669
1F
#470000
b10 "
b11 "
b1 "
b1011 !
b101 "
1#
#470182
0@
#470192
1E
#470563
0D
#470634
1:
#470644
1=
#470654
15
#470674
1<
#470815
09
#470845
08
#473130
13
1(
#473849
1@
#473916
1D
#473919
12
1'
#474020
1?
#474074
01
0&
#474201
1>
#474204
0D
#474219
1A
#474374
0E
#475000
0#
#475855
0<
#477943
02
0'
#479655
0>
#479671
0F
#480000
b1010 !
b10 !
b100 "
b110 "
b0 !
#480634
19
#480815
0:
#480825
04
0=
#480845
0;
#483009
03
0(
#483838
1E
#484322
0E
#484442
0?
#484605
0B
#484607
1C
#484821
0@
#484838
1E
#485202
0A
#485218
1D
#485582
0C
#488182
0/
0$
#488565
12
1'
#488876
11
1&
#490000
b100 !
b1110 "
b1010 "
1#
#490644
16
#490664
18
#490674
1<
#490835
05
#493895
17
#494034
1C
#494238
1F
#494276
07
#494542
1B
#494985
0B
#497481
10
1%
#497699
13
1(
#500000
b1100 !
b1011 "
b1000 !
b11 "
b111 "
#500643
14
#500644
1=
#500654
15
#500825
06
#500845
08
#503841
17
#503924
0D
#504017
0F
#504019
1>
#504117
1B
#504313
07
#504464
0C
#504513
0E
#504517
1@
#504655
1D
#504872
0D
#504887
1A
#505022
0B
#505044
1C
#505240
0C
#505257
1B
#507355
03
0(
#508082
02
0'
#508383
01
0&
#508561
00
0%
#508995
1/
1$
#510000
b1001 !
b1011 !
b110 "
b1111 !
b1110 "
b1010 "
#510634
1:
#510644
16
#510663
1;
#510664
18
#510825
0=
#510835
05
#513886
1E
#513895
17
#514034
1C
#514276
07
#515000
0#
#515855
0<
#517481
10
1%
#517613
12
1'
#519655
0>
#519669
1F
#520000
b1110 !
b1100 !
b10 "
#520185
0E
#520815
0:
#520845
0;
08
#523130
13
1(
#523754
02
0'
#524307
0@
#524320
1E
#524464
0C
#524660
0F
#524688
0A
#524704
1D
#525069
0B
#525084
1C
#527998
03
0(
#528047
12
1'
#528362
11
1&
#528646
0/
0$
#530000
b0 "
b1000 !
1#
b1010 !
#530634
1:
#530674
1<
#530815
09
#530825
06
#533849
1@
#534204
0D
#534238
1F
#534288
0@
#535000
0#
#535855
0<
#537699
13
1(
#537715
01
0&
#539671
0F
#540000
b1 "
b101 "
b1101 "
b1111 "
b1110 !
b1100 !
1#
#540634
19
#540644
1=
16
#540654
15
#540664
18
#540674
1<
#540815
0:
#543009
03
0(
#543809
1@
#543846
0E
#543895
17
#544028
0C
#544039
1B
#544179
1A
#544180
1D
#544201
1>
#544307
0@
#544320
1E
#544586
1C
#544688
0A
0D
#544695
0E
#544699
1@
#545000
0#
#545069
1A
#545070
1D
#545855
0<
#547777
1/
1$
#548264
02
0'
#548728
11
1&
#549655
0>
#549669
1F
#550000
b1110 "
b110 "
b1000 !
1#
#550182
0@
#550192
1E
#550563
0A
0D
#550674
1<
#550825
0=
06
#550845
08
#553130
13
1(
#553919
12
1'
#554074
01
0&
#554313
07
#554464
0C
#554655
1D
#555022
0B
#555044
1C
#558313
11
1&
#558599
0/
0$
#560000
b0 !
b111 "
b1111 "
b100 !
0#
#560644
16
1=
#560664
18
#560825
04
#560855
0<
#563895
17
#564017
0F
#564019
1>
#564028
0C
#564039
1B
#564214
0D
#564513
0E
#564517
1@
#564655
0>
#564669
1F
#564887
1A
#564888
1D
#565182
0@
#565192
1E
#565563
0A
0D
#567349
00
0%
#567777
1/
1$
#569074
01
0&
#570000
b1101 "
b1100 !
b1100 "
1#
#570643
14
#570674
1<
#570815
09
#570825
0=
#574143
1C
#574301
0E
#577590
10
1%
#577870
02
0'
#580000
b1000 "
b1000 !
b1010 "
b0 !
0#
#580634
19
#580825
04
06
#580835
05
#580855
0<
#583838
1E
#584276
07
#584671
0F
#584985
0B
#587565
12
1'
#588009
03
0(
#588562
0/
0$
#590000
b1 !
b1011 "
b101 !
#590644
16
1=
#590663
1;
#594177
1?
#594212
1D
#594531
0E
#594545
1@
#594900
0D
#594915
1A
#595268
0C
#595285
1B
#598100
02
0'
#598589
00
0%
#599023
1/
1$
#600000
b11 "
b1 "
b100 !
b0 "
b0 !
#600815
09
#600825
0=
06
#600845
08
0;
#604288
0@
#604293
1E
#604442
0?
#604469
0B
#604470
1C
#604576
0A
#604822
0E
#604956
0C
#605000
1#
#605674
1<
#608046
0/
0$
#609238
1F
#610000
b10 !
b100 "
b1010 !
b110 "
b1011 !
b1111 !
#610634
1:
19
#610643
14
#610644
16
#610654
15
#610663
1;
#612699
13
1(
#613849
1@
#613895
17
#614143
1C
#614175
1>
#614209
0F
#614219
1A
#614220
1D
#614542
1B
#614588
0C
#614676
1E
#615000
0#
#615855
0<
#617547
03
0(
#617878
11
1&
#618280
1/
1$
#618403
12
1'
#619655
0>
#619669
1F
#620000
b10 "
b111 !
b11 !
#620185
0E
#620825
04
06
#620835
05
#623130
13
1(
#623754
02
0'
#624276
07
#624576
0A
#624605
0B
#624607
1C
#624956
0C
#625000
1#
#625674
1<
#628182
0/
0$
#629201
1>
#629240
0F
#629702
1E
#630000
b11 "
b1 "
b10 !
b101 "
b1010 !
#630643
14
#630644
1=
#630654
15
#630815
09
#630845
0;
#632578
03
0(
#633429
12
1'
#633844
1A
#633924
0D
#634020
1?
#634023
1F
#634214
1B
#634301
0E
#634628
0?
#634660
0F
#635000
0#
#635855
0<
#637435
01
0&
#637870
02
0'
#637952
1/
1$
#639655
0>
#639669
1F
#640000
b1101 "
b1000 !
b1001 !
b1001 "
1#
#640182
0@
#640192
1E
#640563
0A
#640579
1D
#640663
1;
#640664
18
#640674
1<
#640815
0:
#640835
05
#640944
0B
#640959
1C
#643130
13
1(
#643919
12
1'
#644028
0C
#644039
1B
#644177
1?
#644201
1>
#644237
11
1&
#644322
0E
#644365
0D
#644406
10
1%
#644521
0/
0$
#644547
1E
#647349
00
0%
#647777
1/
1$
#647876
01
0&
#650000
b1101 !
b1000 "
b1111 !
b1110 !
0#
#650634
1:
#650644
16
#650825
0=
#650845
0;
#650855
0<
#653849
1@
#653888
0E
#654219
1A
#654442
0?
#654588
1C
#654654
0>
#654671
0F
#655000
1#
#655181
0@
#655191
1E
#655562
0A
#655578
1D
#655674
1<
#655942
0C
#658009
03
0(
#659236
11
1&
#659238
1F
#660000
b110 !
b0 "
b100 "
b10 !
b101 "
b11 !
0#
#660644
1=
#660654
15
#660663
1;
#660825
04
06
#660845
08
#660855
0<
#662699
13
1(
#663841
17
#663924
0D
#664019
1>
#664177
1?
#664313
07
#664469
0B
#664470
1C
#664513
0E
#664517
1@
#664655
1D
0>
#664671
0F
#664872
0D
#664887
1A
#665000
1#
#665046
0C
#665256
1C
#665674
1<
#668009
03
0(
#668046
0/
0$
#668082
02
0'
#668383
01
0&
#668703
10
1%
#669201
1>
#669238
1F
#670000
b111 "
b1 !
b1001 !
b11 "
#670634
19
#670643
14
#670815
0:
#670835
05
#672699
13
1(
#673838
1E
#674117
1B
#674151
0C
#674279
0A
#674322
0E
#674357
1D
#674660
0B
#674675
1C
#678015
11
1&
#680000
b1011 "
b1000 !
b1001 "
b1010 !
#680634
1:
#680664
18
#680815
09
#680845
0;
#684028
0C
#684039
1B
#684628
0?
#684660
0F
#687349
00
0%
#687777
1/
1$
#687998
03
0(
#690000
b1000 "
0#
b10 !
b11 !
b1010 "
b1 !
#690634
19
#690663
1;
#690815
0:
#690825
0=
04
#690855
0<
#693838
1E
#694322
0E
#694605
0B
#694607
1C
#694655
0>
#694669
1F
#695000
1#
#695182
0@
#695192
1E
#695563
0D
#695674
1<
#698054
10
1%
#698130
13
1(
#698182
0/
0$
#698919
12
1'
#699074
01
0&
#699201
1>
#699240
0F
#699695
0E
#699699
1@
#700000
b1011 "
b1001 !
b1001 "
#700070
1D
#700643
14
#700644
1=
#700815
09
#702578
03
0(
#703264
02
0'
#703728
11
1&
#704020
1?
#704023
1F
#704117
1B
#704151
0C
#704288
0@
#704293
1E
#704669
0D
#707472
00
0%
#707484
13
1(
#707855
1/
1$
#708020
12
1'
#708180
01
0&
#710000
b1000 !
b1000 "
#710825
0=
#710845
0;
#714442
0?
#714654
0>
#715000
0#
#715184
0E
#715855
0<
#718753
02
0'
#719671
0F
#720000
b1100 !
b1100 "
b100 "
b100 !
b110 "
b101 !
b111 "
1#
#720634
19
#720644
16
1=
#720654
15
#720663
1;
#720674
1<
#720825
04
#720845
08
#723009
03
0(
#723838
1E
#723895
17
#724177
1?
#724201
1>
#724238
1F
#724469
0B
#724470
1C
#724531
0E
#724545
1@
#724915
1A
#724916
1D
#727699
13
1(
#727917
10
1%
#728046
0/
0$
#728574
11
1&
#730000
b111 !
b11 !
b1111 "
b1011 !
b1110 "
0#
#730634
1:
#730643
14
#730664
18
#730825
06
0=
#730855
0<
#733886
1E
#734117
1B
#734313
07
#734442
0?
#734655
0>
#734657
0D
#735000
1#
#735185
0E
#735674
1<
#737855
1/
1$
#738168
01
0&
#739201
1>
#739240
0F
#739702
1E
#740000
b1010 !
b1000 !
b1100 !
b100 !
b1111 "
#740644
16
1=
#740815
0:
#740825
04
#740845
0;
#742578
03
0(
#743429
12
1'
#743895
17
#744020
1?
#744023
1F
#744212
1D
#744322
0E
#744615
0C
#744628
0?
#744660
0F
#747870
11
1&
#747891
02
0'
#747936
00
0%
#750000
b1011 "
b1001 "
b1100 !
#750643
14
#750815
09
#750835
05
#754143
1C
#754276
07
#754288
0@
#754293
1E
#754365
0D
#754669
0A
#754685
1D
#755049
0C
#758020
12
1'
#760000
b1110 !
b1010 !
b1101 "
b1111 "
b10 !
#760634
1:
19
#760654
15
#760825
04
06
#763809
1@
#763841
17
#763924
0D
#764179
1A
#764180
1D
#764313
07
#764657
0D
#768168
01
0&
#770000
b111 "
b110 "
b110 !
b10 "
b0 "
#770644
16
#770815
09
#770825
0=
#770835
05
#770845
08
#773895
17
#774276
07
#774301
0E
#774441
0>
#774451
1F
#774469
0B
#774470
1C
#774968
0@
#774978
1E
#775349
0A
#775365
1D
#775729
0C
#777912
13
1(
#778046
0/
0$
#779023
11
1&
#780000
b111 !
b1111 !
b1 "
b11 "
#780634
19
#780643
14
#780644
1=
#780663
1;
#783809
1@
#783846
0E
#784019
1>
#784143
1C
#784164
0D
#784177
1?
#784179
1A
#784520
1E
#784532
0C
#784549
1B
#787675
01
0&
#788287
1/
1$
#790000
0#
b1011 !
b111 "
b1010 !
b10 !
b110 "
#790654
15
#790825
04
06
0=
#790845
0;
#790855
0<
#793841
17
#793916
1D
#794313
07
#794442
0?
#794605
0B
#794607
1C
#794654
0>
#794657
0D
#794671
0F
#795184
0E
#798009
03
0(
#798054
10
1%
#798182
0/
0$
#798753
02
0'
#800000
b110 !
b111 !
b1111 !
#800643
14
#800644
16
#800663
1;
#803895
17
#804117
1B
#804151
0C
#804201
1F
#804212
1D
#807472
00
0%
#807662
13
1(
#807855
1/
1$
#807870
11
1&
#810000
b1101 !
b1110 "
b1010 "
#810664
18
#810815
0:
#810835
05
#814034
1C
#814276
07
#814307
0@
#814320
1E
#814365
0D
#814688
0A
#814704
1D
#815000
1#
#815068
0C
#815674
1<
#818047
12
1'
#819201
1>
#819240
0F
#819695
0E
#819699
1@
#820000
b1000 "
b1001 "
b1001 !
b1 !
b11 !
0#
#820054
0D
#820069
1A
#820438
1C
#820634
1:
#820644
1=
#820815
09
#820825
04
06
#820855
0<
#822578
03
0(
#823264
02
0'
#823565
01
0&
#823885
10
1%
#824020
1?
#824023
1F
#824576
0A
#824615
0C
#824655
1D
0>
#824671
0F
#824957
0B
#824972
1C
#828313
11
1&
#828534
0/
0$
#830000
b10 !
b1101 "
#830654
15
#830845
0;
#833844
1A
#833924
0D
#834197
0C
#834214
1B
#834628
0?
#834652
1F
#835000
1#
#835007
0@
#835024
1E
#835388
0A
#835404
1D
#835674
1<
#835769
0B
#835784
1C
#838113
13
1(
#838751
12
1'
#839201
1>
#839240
0F
#839695
0E
#839699
1@
#840000
b1100 "
b1010 !
b1000 !
b1000 "
#840054
0D
#840069
1A
#840422
0C
#840439
1B
#840643
14
#840815
0:
#840825
0=
#840835
05
#842578
03
0(
#843264
02
0'
#843565
01
0&
#843743
00
0%
#844143
1C
#844177
1/
1$
#844279
0A
#844307
0@
#844320
1E
#844357
1D
#844441
0>
#844451
1F
#844659
0C
#844688
0D
#844971
0E
#845000
0#
#845855
0<
#847912
13
1(
#849671
0F
#850000
b0 "
b10 "
b1100 !
b1110 !
1#
#850634
19
1:
#850644
16
#850674
1<
#850845
08
#853009
03
0(
#853849
1@
#854219
1A
#854238
1F
#857699
13
1(
#860000
b1111 !
b11 "
b111 !
b1011 "
b11 !
b1 !
0#
#860644
1=
#860663
1;
#860664
18
